﻿{
  "assignmentScore": 10,
  "finalScore": 10,
  "hardWorkScore": 10,
  "midtermScore": 10,
  "subjects": {
    "students": [],
    "subjectCode": "18T1.XLTHS",
    "subjectName": "Xử Lý Tín Hiệu Số",
    "teacherCode": "teacher1"
  }
}